{
  "hash": "c6c8f9ed533631a44d16b56071b15750",
  "result": {
    "markdown": "---\ntitle: Principal Coordinate Analysis\n#author: Miguel Alvarez\ndate: '2024-01-26'\ndate-modified: '2024-01-26'\n#image: iris-stats.png\ncategories:\n  - method\ndescription:\n  Principal Coordinate Analysis (PCOA) is a distance-based ordination that aims to compress similarity patterns into an ordination diagram.\ndraft: false\n---\n\n\n# Description\n\nPrincipal Coordinate Analysis (PCOA), also known as classical (metric) multidimensional scaling, is a statistical technique used to visualise and analyse (dis)similarities between a set of objects or observations.\nPCOA transforms a distance matrix derived from pairwise dissimilarity measures into a set of orthogonal axes (principal coordinates) in a lower dimensional space.\nThese axes represent the main directions in the data that account for the maximum variance.\n\n# Example\n\n\n\n::: {.cell}\n\n:::\n\n::: {.cell}\n\n```{.r .cell-code}\nlalashan <- readRDS(\"lalashan.rds\")\n```\n:::\n\n::: {.cell}\n\n```{.r .cell-code}\nlibrary(vegan)\n\n# First calculate distance matrix\ndist_m <- vegdist(lalashan$cross, method = \"bray\")\n\n# Compute the ordination\npcoa_ord <- wcmdscale(dist_m, eig = TRUE)\nplot(pcoa_ord)\n```\n\n::: {.cell-output-display}\n![](index_files/figure-html/unnamed-chunk-3-1.png){width=672}\n:::\n:::\n\n\n\n# Alternative functions\n\n- `vegan::wcmdscale()`\n- `vegan::capscale()` if using only one matrix as input\n- `stats::cmdscale()`\n- `ape::pcoa()`\n\n\n# Further References\n\n- <https://www.davidzeleny.net/anadat-r/doku.php/en:pcoa_nmds>\n- <https://en.wikipedia.org/wiki/Multidimensional_scaling>\n",
    "supporting": [
      "index_files"
    ],
    "filters": [
      "rmarkdown/pagebreak.lua"
    ],
    "includes": {},
    "engineDependencies": {},
    "preserve": {},
    "postProcess": true
  }
}