{
  "hash": "496d2057caff1c007ecf6cdc18db1e0b",
  "result": {
    "markdown": "---\ntitle: Detrended Correspondence Analysis\n#author: Miguel Alvarez\ndate: '2024-01-26'\ndate-modified: '2024-01-19'\n#image: iris-stats.png\ncategories:\n  - method\ndescription:\n  Statistical descriptions of the data set iris.\ndraft: false\n---\n\n\n# Description\n\nDetrended Correspondence Analysis (DCA) is an extension of Correspondence Analysis designed to handle nonlinear responses and complex gradients in ecological community data.\nDCA is specifically employed to explore and interpret patterns in species abundance data, common in ecological studies.\nUnlike traditional Correspondence Analysis, DCA detrends the data to address the arch effect, which can distort the ordination results.\nIt achieves this by removing the long gradients present in the data, allowing for more accurate representation of ecological patterns.\nDCA is particularly valuable for visualizing and understanding community structure, species associations, and environmental gradients in ecological datasets, providing ecologists with insights into the underlying ecological dynamics.\n\n# Example\n\n\n\n::: {.cell}\n\n:::\n\n::: {.cell}\n\n```{.r .cell-code}\nlalashan <- readRDS(\"data/lalashan.rds\")\n```\n:::\n\n::: {.cell}\n\n```{.r .cell-code}\nlibrary(vegan)\n\nca_ord <- cca(lalashan$cross)\nplot(ca_ord)\n```\n\n::: {.cell-output-display}\n![](index_files/figure-html/unnamed-chunk-3-1.png){width=672}\n:::\n:::\n\n::: {.cell}\n\n```{.r .cell-code}\ndca_ord <- decorana(lalashan$cross)\nplot(dca_ord)\n```\n\n::: {.cell-output-display}\n![](index_files/figure-html/unnamed-chunk-4-1.png){width=672}\n:::\n:::\n\n\n\n# Alternative functions\n\n- `vegan::decorana()`\n\n# Exercises\n\nTODO\n",
    "supporting": [
      "index_files"
    ],
    "filters": [
      "rmarkdown/pagebreak.lua"
    ],
    "includes": {},
    "engineDependencies": {},
    "preserve": {},
    "postProcess": true
  }
}