{
  "hash": "5b2c9238f60495d7b32e30bd4c733f24",
  "result": {
    "markdown": "---\ntitle: Detrended Correspondence Analysis\n#author: Miguel Alvarez\ndate: '2024-01-26'\ndate-modified: '2024-01-26'\n#image: iris-stats.png\ncategories:\n  - method\ndescription:\n  Detrended Correspondence Analysis (DCA) is an extension of CA that aims to avoid the arch effect in the resulting ordination.\ndraft: false\n---\n\n\n# Description\n\nDetrended Correspondence Analysis (DCA) is an extension of [CA](../ca/index.qmd) designed to reduce the arch-artefact.\nDCA detrends the data by removing the long gradients present in the data, allowing for more accurate representation of ecological patterns.\n\nThe length of the first DCA axis (in SD units) is related to the heterogeneity/homogeneity of the dataset, and can be used to decide whether data should be analysed by linear (axis shorter than 3 SD) or unimodal (axis longer than 4 SD) ordination methods.\n\n# Example\n\n\n\n::: {.cell}\n\n:::\n\n::: {.cell}\n\n```{.r .cell-code}\nwetlands <- readRDS(\"wetlands.rds\")\n```\n:::\n\n::: {.cell}\n\n```{.r .cell-code}\nlibrary(vegan)\nlibrary(vegtable)\n\n# Reclasify abundance\nwetlands$obs$abund <- cut(wetlands$obs$cover_perc,\n        breaks = c(0, 25, 50, 100), labels = FALSE)\nwetlands$cross2 <- crosstable(abund ~ taxon_code + plot_id,\n        FUN = max, data = wetlands$obs,\n        na_to_zero = TRUE,\n        as_matrix = TRUE)\n\ndca_ord <- decorana(wetlands$cross2)\nplot(dca_ord)\n```\n\n::: {.cell-output-display}\n![](index_files/figure-html/unnamed-chunk-3-1.png){width=672}\n:::\n:::\n\n\n# Alternative functions\n\n- `vegan::decorana()`\n\n\n# Further References\n\n- <https://www.davidzeleny.net/anadat-r/doku.php/en:ca_dca>\n- <https://en.wikipedia.org/wiki/Detrended_correspondence_analysis>\n",
    "supporting": [
      "index_files"
    ],
    "filters": [
      "rmarkdown/pagebreak.lua"
    ],
    "includes": {},
    "engineDependencies": {},
    "preserve": {},
    "postProcess": true
  }
}